[gd_scene load_steps=2 format=2]

[ext_resource path="res://3rdParty/KayKit Dungeon Pack 1.0/Models/Characters/gltf/character_barbarian.gltf" type="PackedScene" id=1]

[node name="character_barbarian" instance=ExtResource( 1 )]
