[gd_scene load_steps=2 format=2]

[ext_resource path="res://3rdParty/KayKit Dungeon Pack 1.0/Models/gltf/dagger_rare.gltf.glb" type="PackedScene" id=1]

[node name="dagger_raregltf" instance=ExtResource( 1 )]
