[gd_scene load_steps=3 format=2]

[ext_resource path="res://3rdParty/KayKit Dungeon Pack 1.0/Models/gltf/pillar.gltf.glb" type="PackedScene" id=1]

[sub_resource type="BoxShape3D" id=1]
size = Vector3( 0.65, 2, 0.65 )

[node name="pillargltf" instance=ExtResource( 1 )]

[node name="StaticBody3D" type="StaticBody3D" parent="." index="1"]
collision_mask = 0

[node name="CollisionShape3D" type="CollisionShape3D" parent="StaticBody3D" index="0"]
transform = Transform3D( 1, 0, 0, 0, 1, 0, 0, 0, 1, 0, 2, 0 )
shape = SubResource( 1 )
