[gd_scene load_steps=2 format=2]

[ext_resource path="res://3rdParty/KayKit Dungeon Pack 1.0/Models/gltf/potionSmall_red.gltf.glb" type="PackedScene" id=1]

[node name="potionSmall_redgltf" instance=ExtResource( 1 )]
