[gd_scene load_steps=2 format=2]

[ext_resource path="res://3rdParty/KayKit Dungeon Pack 1.0/Models/gltf/quiver_half_full.gltf.glb" type="PackedScene" id=1]

[node name="quiver_half_fullgltf" instance=ExtResource( 1 )]
