[gd_scene load_steps=3 format=2]

[ext_resource path="res://3rdParty/KayKit Dungeon Pack 1.0/Models/gltf/scaffold_stairs.gltf.glb" type="PackedScene" id=1]

[sub_resource type="ConvexPolygonShape3D" id=1]
points = PackedVector3Array( 1, 0, 1, 1, 2, -1, -1, 2, -1, -1, 0, 1, 1, 0, 0.9, 1, 1.9, -1, -1, 0, 0.9, -1, 1.9, -1 )

[node name="scaffold_stairsgltf" instance=ExtResource( 1 )]

[node name="StaticBody3D" type="StaticBody3D" parent="." index="1"]
collision_mask = 0

[node name="CollisionShape3D" type="CollisionShape3D" parent="StaticBody3D" index="0"]
shape = SubResource( 1 )
