[gd_scene load_steps=3 format=2]

[ext_resource path="res://3rdParty/KayKit Dungeon Pack 1.0/Models/gltf/tileBrickB_largeCrackedB.gltf.glb" type="PackedScene" id=1]

[sub_resource type="BoxShape3D" id=1]
size = Vector3( 3, 0.5, 3 )

[node name="tileBrickB_largeCrackedBgltf" instance=ExtResource( 1 )]

[node name="StaticBody3D" type="StaticBody3D" parent="." index="1"]

[node name="CollisionShape3D" type="CollisionShape3D" parent="StaticBody3D" index="0"]
transform = Transform3D( 1, 0, 0, 0, 1, 0, 0, 0, 1, 0, 0.5, 0 )
shape = SubResource( 1 )
