[gd_scene load_steps=4 format=3 uid="uid://dcbb1bs7p270l"]

[ext_resource type="PackedScene" uid="uid://chx3rf13ea8hg" path="res://3rdParty/KayKit Dungeon Pack 1.0/Models/gltf/wallCorner.gltf.glb" id="1"]

[sub_resource type="BoxShape3D" id="1"]
size = Vector3(0.6, 2, 1.3)

[sub_resource type="BoxShape3D" id="2"]
size = Vector3(1.3, 2, 0.6)

[node name="wallCornergltf" instance=ExtResource("1")]

[node name="StaticBody3D" type="StaticBody3D" parent="." index="1"]
collision_mask = 0

[node name="CollisionShape3D" type="CollisionShape3D" parent="StaticBody3D" index="0"]
transform = Transform3D(1, 0, 0, 0, 1, 0, 0, 0, 1, 0, 2, 0.7)
shape = SubResource("1")

[node name="CollisionShape2" type="CollisionShape3D" parent="StaticBody3D" index="1"]
transform = Transform3D(1, 0, 0, 0, 1, 0, 0, 0, 1, -0.7, 2, 0)
shape = SubResource("2")
