[gd_scene load_steps=3 format=2]

[ext_resource path="res://ingame_assets/dungeon_props/coingltf.tscn" type="PackedScene" id=1]

[sub_resource type="CylinderShape3D" id=1]
radius = 0.16
height = 0.1

[node name="coingltf_moveable" type="RigidBody3D"]

[node name="coingltf" parent="." instance=ExtResource( 1 )]
transform = Transform3D( 0.35, 0, 0, 0, -5.70222e-08, 0.35, 0, -0.35, -5.70222e-08, 0, 0, 0 )

[node name="CollisionShape3D" type="CollisionShape3D" parent="."]
shape = SubResource( 1 )
