[gd_scene load_steps=5 format=2]

[ext_resource path="res://ingame_assets/dungeon_props/coinsMediumgltf.tscn" type="PackedScene" id=1]

[sub_resource type="PhysicsMaterial" id=1]
rough = true

[sub_resource type="CylinderShape3D" id=2]
radius = 0.338565
height = 0.5

[sub_resource type="CylinderShape3D" id=3]
radius = 0.162527
height = 0.100866

[node name="coinsMediumgltf_moveable" type="RigidBody3D"]
mass = 10.0
physics_material_override = SubResource( 1 )

[node name="coinsMediumgltf" parent="." instance=ExtResource( 1 )]

[node name="CollisionShape3D" type="CollisionShape3D" parent="."]
transform = Transform3D( 1, 0, 0, 0, 1, 0, 0, 0, 1, -0.13, 0.25, 0.058 )
shape = SubResource( 2 )

[node name="CollisionShape2" type="CollisionShape3D" parent="."]
transform = Transform3D( 1, 0, 0, 0, 1, 0, 0, 0, 1, 0.498, 0.05, 0.199 )
shape = SubResource( 3 )

[node name="CollisionShape3" type="CollisionShape3D" parent="."]
transform = Transform3D( 1, 0, 0, 0, 1, 0, 0, 0, 1, -0.408594, 0.05, -0.391865 )
shape = SubResource( 3 )
