[gd_scene load_steps=4 format=2]

[ext_resource path="res://ingame_assets/dungeon_props/tableSmallgltf.tscn" type="PackedScene" id=1]

[sub_resource type="PhysicsMaterial" id=1]
rough = true

[sub_resource type="BoxShape3D" id=2]
size = Vector3( 0.5, 0.35, 0.5 )

[node name="tableSmallgltf_moveable" type="RigidBody3D"]
mass = 100.0
physics_material_override = SubResource( 1 )

[node name="tableSmallgltf" parent="." instance=ExtResource( 1 )]

[node name="CollisionShape3D" type="CollisionShape3D" parent="."]
transform = Transform3D( 1, 0, 0, 0, 1, 0, 0, 0, 1, 0, 0.35, 0 )
shape = SubResource( 2 )
