[gd_scene load_steps=5 format=2]

[ext_resource path="res://ingame_assets/dungeon_props/potCgltf.tscn" type="PackedScene" id=1]
[ext_resource path="res://ingame_assets/dungeon_props/potBgltf.tscn" type="PackedScene" id=2]
[ext_resource path="res://ingame_assets/dungeon_props/potAgltf.tscn" type="PackedScene" id=3]
[ext_resource path="res://ingame_assets/stylized_fire/Fire_small_green.tscn" type="PackedScene" id=4]

[node name="pots_01" type="Node3D"]

[node name="OmniLight3D" type="OmniLight3D" parent="."]
transform = Transform3D( 1, 0, 0, 0, 1, 0, 0, 0, 1, 0.473848, 0.69997, -0.192857 )
light_color = Color( 0.780392, 1, 0.215686, 1 )

[node name="Fire" parent="." instance=ExtResource( 4 )]
transform = Transform3D( 1, 0, 0, 0, 1, 0, 0, 0, 1, 0.00596625, 0.995118, -0.14055 )
visibility_aabb = AABB( -4, -4.01709, -4, 8, 8, 8 )

[node name="Fire2" parent="." instance=ExtResource( 4 )]
transform = Transform3D( 1.32839, 0, 0, 0, 1.16826, 0, 0, 0, 1.32839, 0.883502, 0.551751, 0.296636 )
visibility_aabb = AABB( -4, -4.01709, -4, 8, 8, 8 )

[node name="potAgltf" parent="." instance=ExtResource( 3 )]
transform = Transform3D( 1, 0, 0, 0, 1, 0, 0, 0, 1, 0.00596625, -2.38419e-07, -0.14055 )

[node name="potCgltf" parent="." instance=ExtResource( 1 )]
transform = Transform3D( 0.840221, 0, 0, 0, 0.840221, 0, 0, 0, 0.840221, 0.86884, -0.131662, 0.309775 )

[node name="potBgltf" parent="." instance=ExtResource( 2 )]
transform = Transform3D( 0.713826, 0, 0, 0, 0.713826, 0, 0, 0, 0.713826, 0.536372, 0, -0.567311 )
