[gd_scene load_steps=4 format=2]

[ext_resource path="res://3rdParty/KayKit Dungeon Pack 1.0/Models/gltf/pots.gltf.glb" type="PackedScene" id=1]
[ext_resource path="res://ingame_assets/stylized_fire/Fire_small.tscn" type="PackedScene" id=2]
[ext_resource path="res://ingame_assets/stylized_fire/Fire_small_green.tscn" type="PackedScene" id=3]

[node name="potsgltf" instance=ExtResource( 1 )]

[node name="Fire" parent="." index="1" instance=ExtResource( 2 )]
transform = Transform3D( 1, 0, 0, 0, 1, 0, 0, 0, 1, -0.0252996, 0.946405, -0.588308 )

[node name="Fire3" parent="." index="2" instance=ExtResource( 3 )]
transform = Transform3D( 1, 0, 0, 0, 1, 0, 0, 0, 1, 0.386973, 0.621962, 0.474789 )

[node name="Fire2" parent="." index="3" instance=ExtResource( 3 )]
transform = Transform3D( 1, 0, 0, 0, 1, 0, 0, 0, 1, -0.4071, 0.825897, 0.0602583 )

[node name="OmniLight3D" type="OmniLight3D" parent="." index="4"]
transform = Transform3D( 1, 0, 0, 0, 1, 0, 0, 0, 1, 0, 0.600076, 0 )
light_color = Color( 0.12549, 0.952941, 0.101961, 1 )
