<?xml version="1.0" encoding="UTF-8" standalone="no"?>
<!DOCTYPE svg PUBLIC "-//W3C//DTD SVG 1.1//EN" "http://www.w3.org/Graphics/SVG/1.1/DTD/svg11.dtd">
<svg width="100%" height="100%" viewBox="0 0 394 174" version="1.1" xmlns="http://www.w3.org/2000/svg" xmlns:xlink="http://www.w3.org/1999/xlink" xml:space="preserve" xmlns:serif="http://www.serif.com/" style="fill-rule:evenodd;clip-rule:evenodd;stroke-linecap:round;stroke-linejoin:round;stroke-miterlimit:1.5;">
    <g id="ArtBoard1" transform="matrix(0.4925,0,0,0.554658,0,0)">
        <rect x="0" y="0" width="800" height="313" style="fill:none;"/>
        <g transform="matrix(7.67644,0,0,6.81618,-2247.44,-875.828)">
            <g transform="matrix(12,0,0,12,334.703,144.072)">
                <path d="M0.327,0.084C0.316,0.083 0.309,0.079 0.305,0.072C0.3,0.065 0.298,0.059 0.299,0.052C0.299,0.044 0.302,0.037 0.307,0.032C0.312,0.027 0.32,0.024 0.33,0.024C0.34,0.025 0.35,0.025 0.36,0.025C0.37,0.026 0.38,0.026 0.39,0.026C0.43,0.026 0.466,0.023 0.497,0.017C0.528,0.011 0.552,0 0.57,-0.015C0.588,-0.03 0.597,-0.052 0.597,-0.08C0.597,-0.099 0.592,-0.112 0.583,-0.121C0.573,-0.129 0.56,-0.134 0.545,-0.137C0.529,-0.139 0.512,-0.14 0.493,-0.14C0.468,-0.14 0.443,-0.139 0.418,-0.137C0.392,-0.134 0.365,-0.133 0.338,-0.133C0.282,-0.133 0.232,-0.143 0.187,-0.162C0.141,-0.181 0.106,-0.21 0.08,-0.247C0.053,-0.283 0.04,-0.328 0.04,-0.381C0.04,-0.427 0.049,-0.47 0.068,-0.51C0.087,-0.551 0.112,-0.586 0.145,-0.616C0.178,-0.646 0.215,-0.67 0.258,-0.687C0.301,-0.704 0.346,-0.712 0.394,-0.712C0.447,-0.712 0.5,-0.702 0.554,-0.683C0.608,-0.664 0.66,-0.636 0.71,-0.599C0.715,-0.596 0.718,-0.592 0.72,-0.587C0.721,-0.582 0.722,-0.578 0.722,-0.573C0.722,-0.566 0.72,-0.56 0.717,-0.555C0.71,-0.545 0.702,-0.54 0.692,-0.54C0.687,-0.54 0.681,-0.542 0.676,-0.546C0.631,-0.577 0.585,-0.602 0.536,-0.62C0.487,-0.638 0.44,-0.647 0.393,-0.647C0.355,-0.647 0.319,-0.64 0.284,-0.625C0.25,-0.611 0.22,-0.592 0.193,-0.568C0.166,-0.543 0.145,-0.515 0.13,-0.484C0.115,-0.452 0.107,-0.419 0.107,-0.384C0.107,-0.34 0.118,-0.304 0.14,-0.276C0.162,-0.247 0.192,-0.226 0.231,-0.213C0.269,-0.2 0.312,-0.193 0.36,-0.193C0.389,-0.193 0.418,-0.194 0.446,-0.196C0.473,-0.198 0.497,-0.199 0.517,-0.199C0.558,-0.199 0.593,-0.188 0.62,-0.165C0.647,-0.141 0.661,-0.112 0.661,-0.076C0.661,-0.036 0.649,-0.004 0.624,0.019C0.599,0.043 0.565,0.06 0.523,0.07C0.48,0.08 0.432,0.085 0.379,0.085C0.37,0.085 0.362,0.085 0.354,0.085C0.345,0.085 0.336,0.085 0.327,0.084Z" style="fill:white;fill-rule:nonzero;"/>
            </g>
            <g transform="matrix(12,0,0,12,343.847,144.072)">
                <path d="M0.124,0.072C0.117,0.072 0.11,0.07 0.103,0.065C0.097,0.06 0.093,0.053 0.092,0.044C0.088,-0.005 0.085,-0.058 0.083,-0.113C0.081,-0.168 0.08,-0.224 0.08,-0.281C0.08,-0.342 0.081,-0.402 0.083,-0.463C0.085,-0.523 0.088,-0.58 0.092,-0.635C0.093,-0.646 0.097,-0.654 0.104,-0.659C0.111,-0.663 0.117,-0.664 0.124,-0.663C0.136,-0.661 0.144,-0.657 0.148,-0.65C0.152,-0.643 0.153,-0.634 0.152,-0.624C0.182,-0.594 0.208,-0.568 0.231,-0.545C0.254,-0.522 0.275,-0.5 0.296,-0.479C0.317,-0.458 0.339,-0.436 0.362,-0.412C0.385,-0.389 0.412,-0.362 0.442,-0.331C0.472,-0.3 0.508,-0.264 0.55,-0.222C0.591,-0.179 0.641,-0.128 0.699,-0.069C0.704,-0.12 0.709,-0.174 0.712,-0.231C0.715,-0.288 0.716,-0.345 0.716,-0.404C0.716,-0.443 0.715,-0.481 0.714,-0.519C0.713,-0.557 0.711,-0.594 0.709,-0.631C0.708,-0.64 0.711,-0.648 0.717,-0.654C0.723,-0.66 0.731,-0.663 0.741,-0.663C0.748,-0.663 0.754,-0.661 0.759,-0.656C0.765,-0.651 0.768,-0.644 0.769,-0.635C0.772,-0.596 0.774,-0.559 0.775,-0.522C0.776,-0.485 0.777,-0.447 0.777,-0.41C0.777,-0.337 0.774,-0.263 0.769,-0.19C0.764,-0.116 0.756,-0.039 0.747,0.04C0.746,0.049 0.743,0.056 0.737,0.06C0.731,0.065 0.725,0.067 0.718,0.067C0.708,0.067 0.7,0.063 0.694,0.056C0.688,0.049 0.686,0.042 0.687,0.033C0.687,0.03 0.687,0.026 0.688,0.02C0.689,0.014 0.689,0.01 0.69,0.008L0.147,-0.546C0.144,-0.504 0.142,-0.462 0.141,-0.419C0.14,-0.376 0.139,-0.334 0.139,-0.291C0.139,-0.236 0.14,-0.18 0.142,-0.125C0.145,-0.07 0.148,-0.015 0.152,0.039C0.153,0.05 0.151,0.057 0.145,0.062C0.138,0.067 0.131,0.071 0.124,0.072Z" style="fill:white;fill-rule:nonzero;"/>
            </g>
            <g transform="matrix(12,0,0,12,354.131,144.072)">
                <path d="M0.321,0.084C0.278,0.084 0.242,0.081 0.213,0.075C0.184,0.07 0.162,0.059 0.145,0.044C0.128,0.029 0.115,0.009 0.106,-0.018C0.097,-0.044 0.091,-0.078 0.087,-0.119C0.084,-0.138 0.083,-0.158 0.082,-0.179C0.081,-0.199 0.08,-0.219 0.08,-0.24C0.08,-0.293 0.083,-0.349 0.089,-0.407C0.095,-0.466 0.101,-0.527 0.108,-0.592C0.099,-0.592 0.092,-0.596 0.087,-0.603C0.082,-0.61 0.08,-0.617 0.081,-0.623C0.081,-0.631 0.084,-0.638 0.089,-0.644C0.094,-0.649 0.101,-0.652 0.11,-0.652L0.683,-0.664C0.694,-0.664 0.701,-0.661 0.706,-0.655C0.711,-0.649 0.713,-0.642 0.713,-0.635C0.714,-0.627 0.713,-0.62 0.708,-0.614C0.703,-0.607 0.695,-0.604 0.684,-0.604L0.169,-0.594C0.162,-0.541 0.157,-0.484 0.152,-0.423C0.147,-0.361 0.144,-0.302 0.144,-0.246C0.144,-0.221 0.145,-0.198 0.146,-0.175C0.147,-0.152 0.148,-0.131 0.151,-0.112C0.155,-0.073 0.163,-0.044 0.174,-0.024C0.185,-0.004 0.202,0.009 0.223,0.016C0.244,0.023 0.272,0.026 0.306,0.026C0.34,0.026 0.379,0.025 0.423,0.022C0.467,0.019 0.511,0.015 0.557,0.01C0.602,0.005 0.642,0 0.678,-0.005C0.689,-0.008 0.698,-0.005 0.704,0.002C0.71,0.01 0.713,0.018 0.713,0.025C0.713,0.034 0.711,0.04 0.706,0.044C0.701,0.049 0.695,0.052 0.688,0.053C0.649,0.059 0.615,0.064 0.586,0.068C0.556,0.072 0.528,0.075 0.501,0.077C0.474,0.08 0.447,0.081 0.418,0.082C0.389,0.083 0.357,0.084 0.321,0.084ZM0.208,-0.27C0.198,-0.27 0.191,-0.273 0.186,-0.28C0.181,-0.286 0.178,-0.292 0.177,-0.299C0.177,-0.307 0.18,-0.314 0.185,-0.321C0.19,-0.327 0.198,-0.33 0.207,-0.33L0.657,-0.341C0.668,-0.341 0.676,-0.338 0.681,-0.332C0.686,-0.326 0.688,-0.319 0.688,-0.312C0.688,-0.303 0.686,-0.296 0.681,-0.29C0.676,-0.284 0.668,-0.281 0.659,-0.281L0.208,-0.27Z" style="fill:white;fill-rule:nonzero;"/>
            </g>
            <g transform="matrix(12,0,0,12,363.407,144.072)">
                <path d="M0.106,0.072C0.099,0.072 0.092,0.07 0.086,0.065C0.081,0.061 0.077,0.055 0.076,0.047C0.071,0.015 0.068,-0.017 0.065,-0.049C0.062,-0.08 0.06,-0.111 0.06,-0.142C0.06,-0.191 0.064,-0.239 0.072,-0.286C0.08,-0.334 0.092,-0.379 0.109,-0.422C0.13,-0.475 0.157,-0.521 0.19,-0.56C0.223,-0.599 0.262,-0.629 0.305,-0.651C0.347,-0.673 0.394,-0.684 0.444,-0.684C0.495,-0.684 0.542,-0.672 0.586,-0.649C0.63,-0.626 0.669,-0.594 0.703,-0.555C0.736,-0.515 0.762,-0.47 0.781,-0.42C0.798,-0.377 0.811,-0.332 0.819,-0.282C0.827,-0.234 0.831,-0.183 0.831,-0.132C0.831,-0.102 0.83,-0.072 0.828,-0.043C0.825,-0.013 0.822,0.017 0.817,0.046C0.816,0.055 0.813,0.062 0.807,0.066C0.8,0.07 0.794,0.072 0.787,0.072C0.779,0.072 0.772,0.069 0.764,0.062C0.757,0.056 0.755,0.048 0.757,0.038C0.76,0.013 0.763,-0.013 0.765,-0.04C0.767,-0.066 0.768,-0.092 0.768,-0.118C0.768,-0.169 0.764,-0.22 0.756,-0.269C0.748,-0.318 0.735,-0.362 0.718,-0.403C0.701,-0.444 0.679,-0.481 0.651,-0.514C0.623,-0.547 0.591,-0.573 0.556,-0.592C0.52,-0.611 0.481,-0.62 0.44,-0.62C0.4,-0.62 0.363,-0.611 0.33,-0.594C0.297,-0.576 0.267,-0.552 0.242,-0.521C0.216,-0.49 0.194,-0.456 0.177,-0.417C0.159,-0.378 0.146,-0.337 0.137,-0.294L0.684,-0.294C0.695,-0.294 0.702,-0.291 0.707,-0.284C0.712,-0.278 0.714,-0.271 0.714,-0.264C0.714,-0.257 0.711,-0.25 0.706,-0.244C0.701,-0.237 0.693,-0.234 0.684,-0.234L0.127,-0.234C0.126,-0.222 0.125,-0.209 0.124,-0.194C0.123,-0.179 0.122,-0.164 0.122,-0.147C0.122,-0.115 0.123,-0.082 0.126,-0.049C0.129,-0.016 0.132,0.013 0.135,0.037C0.136,0.048 0.134,0.057 0.127,0.063C0.12,0.069 0.113,0.072 0.106,0.072Z" style="fill:white;fill-rule:nonzero;"/>
            </g>
            <g transform="matrix(12,0,0,12,374.099,144.072)">
                <path d="M0.122,0.072C0.113,0.072 0.106,0.069 0.101,0.063C0.095,0.058 0.092,0.051 0.092,0.042L0.08,-0.68C0.08,-0.691 0.083,-0.698 0.09,-0.703C0.097,-0.708 0.103,-0.71 0.11,-0.71C0.117,-0.711 0.124,-0.709 0.131,-0.704C0.137,-0.699 0.14,-0.691 0.14,-0.681L0.146,-0.338C0.165,-0.365 0.193,-0.392 0.229,-0.421C0.265,-0.45 0.306,-0.478 0.352,-0.506C0.398,-0.534 0.446,-0.561 0.496,-0.587C0.545,-0.613 0.594,-0.637 0.641,-0.658C0.646,-0.66 0.651,-0.661 0.655,-0.661C0.667,-0.661 0.676,-0.655 0.681,-0.644C0.683,-0.639 0.684,-0.635 0.684,-0.63C0.684,-0.618 0.678,-0.609 0.667,-0.604C0.637,-0.589 0.603,-0.572 0.564,-0.553C0.525,-0.533 0.485,-0.512 0.444,-0.489C0.403,-0.466 0.364,-0.443 0.328,-0.419C0.291,-0.395 0.26,-0.372 0.235,-0.349C0.21,-0.327 0.193,-0.307 0.186,-0.288C0.193,-0.271 0.21,-0.252 0.234,-0.232C0.26,-0.212 0.29,-0.192 0.326,-0.171C0.362,-0.15 0.401,-0.129 0.442,-0.11C0.483,-0.09 0.525,-0.072 0.566,-0.055C0.607,-0.038 0.646,-0.024 0.681,-0.012C0.694,-0.005 0.701,0.003 0.701,0.014C0.701,0.019 0.7,0.023 0.699,0.025C0.694,0.038 0.685,0.045 0.672,0.045C0.67,0.045 0.666,0.044 0.661,0.043C0.617,0.026 0.57,0.007 0.519,-0.014C0.468,-0.035 0.419,-0.057 0.37,-0.081C0.321,-0.105 0.276,-0.13 0.237,-0.156C0.198,-0.181 0.168,-0.207 0.147,-0.233L0.152,0.041C0.152,0.051 0.149,0.058 0.142,0.063C0.136,0.068 0.129,0.071 0.122,0.072Z" style="fill:white;fill-rule:nonzero;"/>
            </g>
            <g transform="matrix(12,0,0,12,383.231,144.072)">
                <path d="M0.404,0.083C0.395,0.083 0.388,0.08 0.383,0.074C0.377,0.069 0.374,0.062 0.374,0.053L0.374,-0.124C0.291,-0.131 0.22,-0.161 0.163,-0.212C0.106,-0.263 0.066,-0.331 0.043,-0.416C0.038,-0.433 0.035,-0.452 0.033,-0.472C0.031,-0.493 0.03,-0.513 0.03,-0.534C0.03,-0.55 0.031,-0.566 0.032,-0.582C0.033,-0.597 0.035,-0.612 0.037,-0.627C0.038,-0.636 0.042,-0.643 0.048,-0.647C0.053,-0.651 0.059,-0.653 0.066,-0.653C0.076,-0.653 0.084,-0.65 0.09,-0.645C0.096,-0.639 0.098,-0.63 0.097,-0.619C0.095,-0.606 0.094,-0.592 0.093,-0.579C0.092,-0.565 0.092,-0.551 0.092,-0.538C0.092,-0.499 0.096,-0.461 0.104,-0.426C0.118,-0.375 0.14,-0.332 0.169,-0.295C0.198,-0.258 0.232,-0.23 0.273,-0.211C0.314,-0.191 0.358,-0.181 0.407,-0.181C0.456,-0.181 0.501,-0.191 0.542,-0.212C0.582,-0.232 0.616,-0.261 0.645,-0.298C0.673,-0.335 0.693,-0.378 0.706,-0.428C0.71,-0.445 0.713,-0.461 0.715,-0.477C0.716,-0.493 0.717,-0.509 0.717,-0.525C0.717,-0.541 0.716,-0.557 0.715,-0.573C0.714,-0.588 0.712,-0.604 0.709,-0.619C0.708,-0.632 0.711,-0.641 0.718,-0.646C0.724,-0.651 0.731,-0.653 0.738,-0.653C0.745,-0.653 0.751,-0.651 0.757,-0.647C0.763,-0.642 0.767,-0.636 0.769,-0.628C0.772,-0.611 0.774,-0.595 0.775,-0.578C0.776,-0.561 0.776,-0.543 0.776,-0.526C0.776,-0.507 0.775,-0.489 0.774,-0.47C0.772,-0.452 0.769,-0.434 0.765,-0.417C0.744,-0.331 0.705,-0.262 0.647,-0.211C0.588,-0.16 0.517,-0.131 0.434,-0.124L0.434,0.053C0.434,0.064 0.431,0.071 0.425,0.076C0.418,0.081 0.411,0.083 0.404,0.083Z" style="fill:white;fill-rule:nonzero;"/>
            </g>
            <g transform="matrix(12,0,0,12,334.703,156.072)">
                <path d="M0.433,0.073C0.426,0.073 0.419,0.07 0.412,0.064C0.406,0.059 0.403,0.052 0.403,0.043L0.403,-0.588L0.06,-0.595C0.05,-0.595 0.043,-0.598 0.038,-0.605C0.033,-0.612 0.03,-0.618 0.03,-0.625C0.032,-0.645 0.042,-0.655 0.061,-0.655L0.805,-0.641C0.814,-0.641 0.821,-0.638 0.827,-0.632C0.832,-0.627 0.835,-0.619 0.835,-0.61C0.835,-0.601 0.832,-0.594 0.827,-0.589C0.821,-0.584 0.813,-0.581 0.804,-0.581L0.463,-0.587L0.463,0.043C0.463,0.053 0.46,0.06 0.454,0.065C0.447,0.07 0.44,0.073 0.433,0.073Z" style="fill:white;fill-rule:nonzero;"/>
            </g>
            <g transform="matrix(12,0,0,12,345.083,156.072)">
                <path d="M0.43,0.086C0.353,0.086 0.285,0.07 0.226,0.038C0.167,0.006 0.122,-0.039 0.089,-0.096C0.056,-0.153 0.04,-0.219 0.04,-0.294C0.04,-0.373 0.056,-0.442 0.087,-0.499C0.118,-0.556 0.163,-0.599 0.222,-0.63C0.28,-0.661 0.349,-0.676 0.43,-0.676C0.51,-0.676 0.579,-0.66 0.637,-0.628C0.695,-0.596 0.74,-0.552 0.772,-0.495C0.803,-0.438 0.819,-0.371 0.819,-0.294C0.819,-0.238 0.809,-0.187 0.79,-0.141C0.771,-0.094 0.744,-0.054 0.709,-0.021C0.674,0.013 0.632,0.039 0.585,0.058C0.538,0.077 0.486,0.086 0.43,0.086ZM0.43,0.026C0.495,0.026 0.553,0.012 0.602,-0.015C0.651,-0.042 0.69,-0.08 0.718,-0.129C0.745,-0.177 0.759,-0.232 0.759,-0.294C0.759,-0.361 0.746,-0.418 0.719,-0.466C0.692,-0.514 0.654,-0.551 0.605,-0.577C0.556,-0.603 0.497,-0.616 0.43,-0.616C0.325,-0.616 0.243,-0.588 0.186,-0.531C0.129,-0.473 0.1,-0.395 0.1,-0.294C0.1,-0.229 0.114,-0.173 0.141,-0.125C0.169,-0.077 0.208,-0.04 0.258,-0.014C0.307,0.013 0.365,0.026 0.43,0.026Z" style="fill:white;fill-rule:nonzero;"/>
            </g>
            <g transform="matrix(12,0,0,12,362.591,156.072)">
                <path d="M0.433,0.073C0.426,0.073 0.419,0.07 0.412,0.064C0.406,0.059 0.403,0.052 0.403,0.043L0.403,-0.588L0.06,-0.595C0.05,-0.595 0.043,-0.598 0.038,-0.605C0.033,-0.612 0.03,-0.618 0.03,-0.625C0.032,-0.645 0.042,-0.655 0.061,-0.655L0.805,-0.641C0.814,-0.641 0.821,-0.638 0.827,-0.632C0.832,-0.627 0.835,-0.619 0.835,-0.61C0.835,-0.601 0.832,-0.594 0.827,-0.589C0.821,-0.584 0.813,-0.581 0.804,-0.581L0.463,-0.587L0.463,0.043C0.463,0.053 0.46,0.06 0.454,0.065C0.447,0.07 0.44,0.073 0.433,0.073Z" style="fill:white;fill-rule:nonzero;"/>
            </g>
            <g transform="matrix(12,0,0,12,372.971,156.072)">
                <path d="M0.158,0.076C0.138,0.079 0.126,0.071 0.122,0.052C0.107,-0.022 0.097,-0.094 0.09,-0.165C0.083,-0.235 0.08,-0.307 0.08,-0.382C0.08,-0.423 0.081,-0.464 0.083,-0.507C0.084,-0.55 0.086,-0.594 0.089,-0.64C0.089,-0.651 0.093,-0.658 0.1,-0.663C0.107,-0.668 0.114,-0.669 0.121,-0.668C0.13,-0.667 0.137,-0.664 0.142,-0.659C0.148,-0.653 0.15,-0.645 0.149,-0.636C0.148,-0.614 0.146,-0.586 0.145,-0.553C0.144,-0.52 0.142,-0.486 0.141,-0.451C0.141,-0.416 0.14,-0.385 0.14,-0.358L0.14,-0.333C0.14,-0.325 0.14,-0.318 0.141,-0.313L0.678,-0.313C0.689,-0.313 0.697,-0.31 0.702,-0.304C0.706,-0.297 0.708,-0.29 0.708,-0.283C0.708,-0.274 0.705,-0.267 0.7,-0.262C0.695,-0.256 0.687,-0.253 0.678,-0.253L0.144,-0.253C0.147,-0.204 0.152,-0.154 0.159,-0.101C0.165,-0.048 0.172,-0.001 0.181,0.04C0.183,0.05 0.181,0.058 0.176,0.064C0.171,0.07 0.165,0.074 0.158,0.076ZM0.748,0.076C0.74,0.075 0.733,0.071 0.727,0.065C0.721,0.059 0.719,0.052 0.721,0.043C0.727,-0.031 0.731,-0.107 0.734,-0.184C0.737,-0.261 0.738,-0.342 0.738,-0.427C0.738,-0.459 0.738,-0.492 0.738,-0.525C0.737,-0.558 0.737,-0.592 0.736,-0.627C0.736,-0.637 0.739,-0.645 0.746,-0.65C0.753,-0.655 0.759,-0.657 0.766,-0.658C0.775,-0.658 0.782,-0.655 0.788,-0.65C0.793,-0.645 0.796,-0.637 0.796,-0.628C0.797,-0.593 0.797,-0.559 0.798,-0.526C0.798,-0.492 0.798,-0.459 0.798,-0.428C0.798,-0.343 0.797,-0.261 0.794,-0.184C0.791,-0.106 0.787,-0.029 0.78,0.048C0.78,0.059 0.777,0.066 0.77,0.07C0.762,0.074 0.755,0.076 0.748,0.076Z" style="fill:white;fill-rule:nonzero;"/>
            </g>
            <g transform="matrix(12,0,0,12,383.507,156.072)">
                <path d="M0.321,0.084C0.278,0.084 0.242,0.081 0.213,0.075C0.184,0.07 0.162,0.059 0.145,0.044C0.128,0.029 0.115,0.009 0.106,-0.018C0.097,-0.044 0.091,-0.078 0.087,-0.119C0.084,-0.138 0.083,-0.158 0.082,-0.179C0.081,-0.199 0.08,-0.219 0.08,-0.24C0.08,-0.293 0.083,-0.349 0.089,-0.407C0.095,-0.466 0.101,-0.527 0.108,-0.592C0.099,-0.592 0.092,-0.596 0.087,-0.603C0.082,-0.61 0.08,-0.617 0.081,-0.623C0.081,-0.631 0.084,-0.638 0.089,-0.644C0.094,-0.649 0.101,-0.652 0.11,-0.652L0.683,-0.664C0.694,-0.664 0.701,-0.661 0.706,-0.655C0.711,-0.649 0.713,-0.642 0.713,-0.635C0.714,-0.627 0.713,-0.62 0.708,-0.614C0.703,-0.607 0.695,-0.604 0.684,-0.604L0.169,-0.594C0.162,-0.541 0.157,-0.484 0.152,-0.423C0.147,-0.361 0.144,-0.302 0.144,-0.246C0.144,-0.221 0.145,-0.198 0.146,-0.175C0.147,-0.152 0.148,-0.131 0.151,-0.112C0.155,-0.073 0.163,-0.044 0.174,-0.024C0.185,-0.004 0.202,0.009 0.223,0.016C0.244,0.023 0.272,0.026 0.306,0.026C0.34,0.026 0.379,0.025 0.423,0.022C0.467,0.019 0.511,0.015 0.557,0.01C0.602,0.005 0.642,0 0.678,-0.005C0.689,-0.008 0.698,-0.005 0.704,0.002C0.71,0.01 0.713,0.018 0.713,0.025C0.713,0.034 0.711,0.04 0.706,0.044C0.701,0.049 0.695,0.052 0.688,0.053C0.649,0.059 0.615,0.064 0.586,0.068C0.556,0.072 0.528,0.075 0.501,0.077C0.474,0.08 0.447,0.081 0.418,0.082C0.389,0.083 0.357,0.084 0.321,0.084ZM0.208,-0.27C0.198,-0.27 0.191,-0.273 0.186,-0.28C0.181,-0.286 0.178,-0.292 0.177,-0.299C0.177,-0.307 0.18,-0.314 0.185,-0.321C0.19,-0.327 0.198,-0.33 0.207,-0.33L0.657,-0.341C0.668,-0.341 0.676,-0.338 0.681,-0.332C0.686,-0.326 0.688,-0.319 0.688,-0.312C0.688,-0.303 0.686,-0.296 0.681,-0.29C0.676,-0.284 0.668,-0.281 0.659,-0.281L0.208,-0.27Z" style="fill:white;fill-rule:nonzero;"/>
            </g>
            <g transform="matrix(12,0,0,12,334.703,168.072)">
                <path d="M0.377,0.077C0.352,0.077 0.328,0.076 0.303,0.074C0.278,0.072 0.253,0.07 0.228,0.067C0.218,0.066 0.211,0.061 0.206,0.054C0.202,0.047 0.2,0.04 0.201,0.034C0.201,0.027 0.204,0.02 0.211,0.014C0.217,0.009 0.225,0.007 0.234,0.008C0.257,0.011 0.281,0.013 0.306,0.015C0.33,0.017 0.354,0.018 0.377,0.018C0.407,0.018 0.438,0.016 0.471,0.011C0.504,0.006 0.534,-0.001 0.562,-0.011C0.589,-0.02 0.612,-0.033 0.629,-0.049C0.646,-0.065 0.655,-0.084 0.655,-0.106C0.655,-0.139 0.637,-0.164 0.601,-0.182C0.565,-0.2 0.514,-0.209 0.448,-0.209C0.438,-0.208 0.43,-0.211 0.424,-0.218C0.418,-0.224 0.415,-0.23 0.415,-0.237C0.415,-0.25 0.419,-0.259 0.426,-0.263C0.433,-0.266 0.443,-0.268 0.455,-0.269C0.498,-0.272 0.537,-0.281 0.574,-0.297C0.61,-0.312 0.639,-0.333 0.662,-0.359C0.684,-0.384 0.695,-0.413 0.695,-0.444C0.695,-0.477 0.686,-0.504 0.668,-0.528C0.649,-0.551 0.625,-0.569 0.594,-0.584C0.563,-0.599 0.529,-0.609 0.492,-0.616C0.455,-0.623 0.417,-0.626 0.38,-0.626C0.347,-0.626 0.31,-0.624 0.271,-0.62C0.231,-0.615 0.188,-0.607 0.142,-0.596L0.165,0.04C0.165,0.049 0.162,0.056 0.157,0.062C0.152,0.068 0.144,0.071 0.135,0.071C0.115,0.071 0.105,0.061 0.105,0.042L0.08,-0.652C0.08,-0.663 0.083,-0.67 0.089,-0.675C0.094,-0.68 0.101,-0.682 0.108,-0.683C0.116,-0.683 0.123,-0.681 0.13,-0.677C0.136,-0.672 0.139,-0.666 0.14,-0.657C0.228,-0.677 0.307,-0.687 0.376,-0.687C0.423,-0.687 0.469,-0.682 0.515,-0.673C0.56,-0.663 0.6,-0.648 0.636,-0.628C0.672,-0.609 0.701,-0.584 0.722,-0.554C0.743,-0.523 0.753,-0.487 0.753,-0.446C0.753,-0.405 0.74,-0.367 0.714,-0.331C0.688,-0.295 0.652,-0.266 0.606,-0.245C0.639,-0.23 0.665,-0.211 0.685,-0.187C0.705,-0.163 0.715,-0.136 0.715,-0.106C0.715,-0.073 0.705,-0.046 0.686,-0.023C0.666,0 0.64,0.019 0.607,0.034C0.574,0.049 0.537,0.059 0.497,0.066C0.457,0.073 0.417,0.077 0.377,0.077Z" style="fill:white;fill-rule:nonzero;"/>
            </g>
            <g transform="matrix(12,0,0,12,344.219,168.072)">
                <path d="M0.43,0.086C0.353,0.086 0.285,0.07 0.226,0.038C0.167,0.006 0.122,-0.039 0.089,-0.096C0.056,-0.153 0.04,-0.219 0.04,-0.294C0.04,-0.373 0.056,-0.442 0.087,-0.499C0.118,-0.556 0.163,-0.599 0.222,-0.63C0.28,-0.661 0.349,-0.676 0.43,-0.676C0.51,-0.676 0.579,-0.66 0.637,-0.628C0.695,-0.596 0.74,-0.552 0.772,-0.495C0.803,-0.438 0.819,-0.371 0.819,-0.294C0.819,-0.238 0.809,-0.187 0.79,-0.141C0.771,-0.094 0.744,-0.054 0.709,-0.021C0.674,0.013 0.632,0.039 0.585,0.058C0.538,0.077 0.486,0.086 0.43,0.086ZM0.43,0.026C0.495,0.026 0.553,0.012 0.602,-0.015C0.651,-0.042 0.69,-0.08 0.718,-0.129C0.745,-0.177 0.759,-0.232 0.759,-0.294C0.759,-0.361 0.746,-0.418 0.719,-0.466C0.692,-0.514 0.654,-0.551 0.605,-0.577C0.556,-0.603 0.497,-0.616 0.43,-0.616C0.325,-0.616 0.243,-0.588 0.186,-0.531C0.129,-0.473 0.1,-0.395 0.1,-0.294C0.1,-0.229 0.114,-0.173 0.141,-0.125C0.169,-0.077 0.208,-0.04 0.258,-0.014C0.307,0.013 0.365,0.026 0.43,0.026Z" style="fill:white;fill-rule:nonzero;"/>
            </g>
            <g transform="matrix(12,0,0,12,354.527,168.072)">
                <path d="M0.124,0.072C0.117,0.072 0.11,0.07 0.103,0.065C0.097,0.06 0.093,0.053 0.092,0.044C0.088,-0.005 0.085,-0.058 0.083,-0.113C0.081,-0.168 0.08,-0.224 0.08,-0.281C0.08,-0.342 0.081,-0.402 0.083,-0.463C0.085,-0.523 0.088,-0.58 0.092,-0.635C0.093,-0.646 0.097,-0.654 0.104,-0.659C0.111,-0.663 0.117,-0.664 0.124,-0.663C0.136,-0.661 0.144,-0.657 0.148,-0.65C0.152,-0.643 0.153,-0.634 0.152,-0.624C0.182,-0.594 0.208,-0.568 0.231,-0.545C0.254,-0.522 0.275,-0.5 0.296,-0.479C0.317,-0.458 0.339,-0.436 0.362,-0.412C0.385,-0.389 0.412,-0.362 0.442,-0.331C0.472,-0.3 0.508,-0.264 0.55,-0.222C0.591,-0.179 0.641,-0.128 0.699,-0.069C0.704,-0.12 0.709,-0.174 0.712,-0.231C0.715,-0.288 0.716,-0.345 0.716,-0.404C0.716,-0.443 0.715,-0.481 0.714,-0.519C0.713,-0.557 0.711,-0.594 0.709,-0.631C0.708,-0.64 0.711,-0.648 0.717,-0.654C0.723,-0.66 0.731,-0.663 0.741,-0.663C0.748,-0.663 0.754,-0.661 0.759,-0.656C0.765,-0.651 0.768,-0.644 0.769,-0.635C0.772,-0.596 0.774,-0.559 0.775,-0.522C0.776,-0.485 0.777,-0.447 0.777,-0.41C0.777,-0.337 0.774,-0.263 0.769,-0.19C0.764,-0.116 0.756,-0.039 0.747,0.04C0.746,0.049 0.743,0.056 0.737,0.06C0.731,0.065 0.725,0.067 0.718,0.067C0.708,0.067 0.7,0.063 0.694,0.056C0.688,0.049 0.686,0.042 0.687,0.033C0.687,0.03 0.687,0.026 0.688,0.02C0.689,0.014 0.689,0.01 0.69,0.008L0.147,-0.546C0.144,-0.504 0.142,-0.462 0.141,-0.419C0.14,-0.376 0.139,-0.334 0.139,-0.291C0.139,-0.236 0.14,-0.18 0.142,-0.125C0.145,-0.07 0.148,-0.015 0.152,0.039C0.153,0.05 0.151,0.057 0.145,0.062C0.138,0.067 0.131,0.071 0.124,0.072Z" style="fill:white;fill-rule:nonzero;"/>
            </g>
            <g transform="matrix(12,0,0,12,364.811,168.072)">
                <path d="M0.321,0.084C0.278,0.084 0.242,0.081 0.213,0.075C0.184,0.07 0.162,0.059 0.145,0.044C0.128,0.029 0.115,0.009 0.106,-0.018C0.097,-0.044 0.091,-0.078 0.087,-0.119C0.084,-0.138 0.083,-0.158 0.082,-0.179C0.081,-0.199 0.08,-0.219 0.08,-0.24C0.08,-0.293 0.083,-0.349 0.089,-0.407C0.095,-0.466 0.101,-0.527 0.108,-0.592C0.099,-0.592 0.092,-0.596 0.087,-0.603C0.082,-0.61 0.08,-0.617 0.081,-0.623C0.081,-0.631 0.084,-0.638 0.089,-0.644C0.094,-0.649 0.101,-0.652 0.11,-0.652L0.683,-0.664C0.694,-0.664 0.701,-0.661 0.706,-0.655C0.711,-0.649 0.713,-0.642 0.713,-0.635C0.714,-0.627 0.713,-0.62 0.708,-0.614C0.703,-0.607 0.695,-0.604 0.684,-0.604L0.169,-0.594C0.162,-0.541 0.157,-0.484 0.152,-0.423C0.147,-0.361 0.144,-0.302 0.144,-0.246C0.144,-0.221 0.145,-0.198 0.146,-0.175C0.147,-0.152 0.148,-0.131 0.151,-0.112C0.155,-0.073 0.163,-0.044 0.174,-0.024C0.185,-0.004 0.202,0.009 0.223,0.016C0.244,0.023 0.272,0.026 0.306,0.026C0.34,0.026 0.379,0.025 0.423,0.022C0.467,0.019 0.511,0.015 0.557,0.01C0.602,0.005 0.642,0 0.678,-0.005C0.689,-0.008 0.698,-0.005 0.704,0.002C0.71,0.01 0.713,0.018 0.713,0.025C0.713,0.034 0.711,0.04 0.706,0.044C0.701,0.049 0.695,0.052 0.688,0.053C0.649,0.059 0.615,0.064 0.586,0.068C0.556,0.072 0.528,0.075 0.501,0.077C0.474,0.08 0.447,0.081 0.418,0.082C0.389,0.083 0.357,0.084 0.321,0.084ZM0.208,-0.27C0.198,-0.27 0.191,-0.273 0.186,-0.28C0.181,-0.286 0.178,-0.292 0.177,-0.299C0.177,-0.307 0.18,-0.314 0.185,-0.321C0.19,-0.327 0.198,-0.33 0.207,-0.33L0.657,-0.341C0.668,-0.341 0.676,-0.338 0.681,-0.332C0.686,-0.326 0.688,-0.319 0.688,-0.312C0.688,-0.303 0.686,-0.296 0.681,-0.29C0.676,-0.284 0.668,-0.281 0.659,-0.281L0.208,-0.27Z" style="fill:white;fill-rule:nonzero;"/>
            </g>
        </g>
        <g transform="matrix(2.03046,0,0,1.80291,0,0)">
            <path d="M38.623,130.189L33.734,138.519L36.231,152.778L50.257,156.174L55.757,138.066L63.665,135.576L65.015,155.006L66.985,157.555L83.905,157.671L85.18,155.817L86.686,136L96.305,138.086L101.057,156.049L111.834,154.426L114.384,152.572L116.354,139.592L112.783,131.379L126.552,130.089L138.257,124.643L145.355,106.678L148.615,86.804L146.261,68.471L138.475,50.182L126.886,34.609L111.856,23.382L94.111,15.777L76.184,13.604L55.757,16.32L39.425,23.926L24.034,34.79L11.72,50.725L4.477,68.109L2.486,86.804L4.658,107.946L12.083,125.329L22.766,130.218L38.623,130.189ZM75.55,97.63L69.482,107.692L68.323,118.353L81.767,118.469L80.629,107.597L75.55,97.63ZM110.058,69.811C100.514,69.811 93.58,77.989 92.302,89.588C90.917,102.157 90.363,108.88 107.856,109.829C120.063,110.491 125.458,105.035 125.149,89.82C124.925,78.779 119.602,69.811 110.058,69.811ZM41.66,68.652C51.204,68.652 58.138,76.83 59.416,88.429C60.801,100.998 61.355,107.721 43.862,108.67C31.655,109.332 26.26,103.876 26.569,88.661C26.793,77.62 32.116,68.652 41.66,68.652Z" style="fill:white;stroke:white;stroke-width:1px;"/>
        </g>
    </g>
</svg>
